{
  "all-about-tor": {
    "name": "All About Tor",
    "author": "Tor Project",
    "link": "https://community.torproject.org/training/resources/all-about-tor",
    "description": "Full set of slides for Tor Trainings: how the Tor network works, censorship circumvention, Tor Browser installation, and OnionShare.",
    "date": "2021",
    "cover": "/static/images/training/all-about-tor.png",
    "topics": [],
    "languages": {
      "en": "English"
    },
    "formats": {
      "ODP": "https://gitweb.torproject.org/community/training.git/plain/2021/all-about-tor/all-about-tor-full-pack.odp"
    }
  },
  "todo sobre tor": {
    "name": "Todo sobre Tor",
    "author": "Tor Project",
    "description": "Un conjunto completo de diapositivas para los entrenamientos de Tor",
    "date": "2019",
    "cover": "/static/images/training/todo-sobre-tor.png",
    "topics": [],
    "languages": {
      "es": "Español"
    },
    "link" : "https://gitweb.torproject.org/community/training.git/plain/2019/all-about-tor/all-about-tor-full-pack+es.odp"
  },
  "tor network workshop": {
    "author": "Tor Project",
    "name": "The Tor network",
    "description": "Learn about the Tor network and how to run a relay",
    "date": "2019",
    "cover": "/static/images/training/the-tor-network.png",
    "topics": [],
    "languages": {
      "en": "English"
    },
    "link": "https://community.torproject.org/training/resources/tor-relay-workshop/"
  },
  "Private bridges workshop": {
    "author": "Tor Project",
    "name": "Running Tor bridges",
    "description": "Learn how to run a private unlisted Tor bridge",
    "date": "2021",
    "cover": "/static/images/training/running-tor-bridges.png",
    "topics": [],
    "languages": {
      "en": "English"
    },
    "link": "https://gitweb.torproject.org/community/training.git/plain/2021/private-bridges/private-bridges-workshop.odp"
  },

  "Introduction to Onion Services" :
  {
    "author": "Tor Project",
    "name": "Introduction to Onion Services",
    "description": "Learn more about Onion Services and their benefits",
    "date": "2022",
    "cover": "/static/images/training/onion-services.png",
    "topics": [],
    "languages": {
      "en": "English"
    },
    "link": "https://gitlab.torproject.org/tpo/community/training/-/raw/master/2022/onion-services/intro-onion-service-2022.odp?inline=false"
  },
  "how-to-bypass-internet-censorship": {
    "name": "How to bypass internet censorship",
    "author": "Totem Project",
    "description": "An online course that teach how to use anti-censorship tools",
    "link": "https://learn.totem-project.org/courses/course-v1:Totem+TP_CT_EN+001/about",
    "cover": "/static/images/training/how-to-bypass-censorship.png",
    "topics": [],
    "languages": {
      "multiple_languages": "Multiple languages"
    }
  },
  "tails-tu-computadora-segura-en-cualquier-lugar": {
    "name": "Tails: Tu computadora segura en cualquier lugar",
    "author": "Tails",
    "description": "Tails training slides to human rights defenders, journalists and activists in Latin America.",
    "link": "https://tails.boum.org/contribute/how/promote/material/slides/Ciclo_Autodefensa_Digital_202204/Tails-Spanish.odp",
    "cover": "/static/images/training/tails-logo.svg",
    "topics": [],
    "languages": {
      "es": "Español"
    }
  },
  "orbot-tor-vpn-para-ios-android": {
    "name": "Orbot: Tor VPN para iOS y Android",
    "author": "The Guardian Project",
    "description": "Orbot training slides that cover how Tor works, how to bypass the censorship using bridges, and what are pluggable transports.",
    "link": "https://gitlab.com/guardianproject/pluto/-/blob/main/Orbot_Spanish.pdf",
    "cover": "/static/images/training/orbot.png",
    "topics": [],
    "languages": {
      "es": "Español"
    }
  },
  "onion-browser-para-ios": {
    "name": "Onion Browser: Tu conexión confiable a Tor desde iOS",
    "author": "The Guardian Project",
    "description": "Onion Browser training slides. This material covers how Tor works, bypassing censorship using bridges and pluggable transports.",
    "link": "https://gitlab.com/guardianproject/pluto/-/blob/main/Onion_Browser.pdf",
    "cover": "/static/images/training/onion-browser.png",
    "topics": [],
    "languages": {
      "es": "Español"
    }
  }
}
